{
    "list": [
        {
            "title": "Batman: The Killing Joke",
            "year": "2016",
            "imdbID": "tt4853102",
            "type": "movie",
            "poster": "https://m.media-amazon.com/images/M/MV5BMTdjZTliODYtNWExMi00NjQ1LWIzN2MtN2Q5NTg5NTk3NzliL2ltYWdlXkEyXkFqcGdeQXVyNTAyODkwOQ@@._V1_SX300.jpg"
        },
        {
            "title": "Batman: The Dark Knight Returns, Part 2",
            "year": "2013",
            "imdbID": "tt2166834",
            "type": "movie",
            "poster": "https://m.media-amazon.com/images/M/MV5BYTEzMmE0ZDYtYWNmYi00ZWM4LWJjOTUtYTE0ZmQyYWM3ZjA0XkEyXkFqcGdeQXVyNTA4NzY1MzY@._V1_SX300.jpg"
        },
        {
            "title": "Batman: Mask of the Phantasm",
            "year": "1993",
            "imdbID": "tt0106364",
            "type": "movie",
            "poster": "https://m.media-amazon.com/images/M/MV5BYTRiMWM3MGItNjAxZC00M2E3LThhODgtM2QwOGNmZGU4OWZhXkEyXkFqcGdeQXVyNjExODE1MDc@._V1_SX300.jpg"
        },
        {
            "title": "Batman: Assault on Arkham",
            "year": "2014",
            "imdbID": "tt3139086",
            "type": "movie",
            "poster": "https://m.media-amazon.com/images/M/MV5BZDU1ZGRiY2YtYmZjMi00ZDQwLWJjMWMtNzUwNDMwYjQ4ZTVhXkEyXkFqcGdeQXVyNTAyODkwOQ@@._V1_SX300.jpg"
        },
        {
            "title": "Batman: year One",
            "year": "2011",
            "imdbID": "tt1672723",
            "type": "movie",
            "poster": "https://m.media-amazon.com/images/M/MV5BNTJjMmVkZjctNjNjMS00ZmI2LTlmYWEtOWNiYmQxYjY0YWVhXkEyXkFqcGdeQXVyNTAyODkwOQ@@._V1_SX300.jpg"
        },
        {
            "title": "Batman: The Movie",
            "year": "1966",
            "imdbID": "tt0060153",
            "type": "movie",
            "poster": "https://m.media-amazon.com/images/M/MV5BMmM1OGIzM2UtNThhZS00ZGNlLWI4NzEtZjlhOTNhNmYxZGQ0XkEyXkFqcGdeQXVyNTkxMzEwMzU@._V1_SX300.jpg"
        },
        {
            "title": "Batman: Gotham Knight",
            "year": "2008",
            "imdbID": "tt1117563",
            "type": "movie",
            "poster": "https://m.media-amazon.com/images/M/MV5BM2I0YTFjOTUtMWYzNC00ZTgyLTk2NWEtMmE3N2VlYjEwN2JlXkEyXkFqcGdeQXVyNTAyODkwOQ@@._V1_SX300.jpg"
        },
        {
            "title": "Batman: Arkham City",
            "year": "2011",
            "imdbID": "tt1568322",
            "type": "game",
            "poster": "https://m.media-amazon.com/images/M/MV5BZDE2ZDFhMDAtMDAzZC00ZmY3LThlMTItMGFjMzRlYzExOGE1XkEyXkFqcGdeQXVyNTAyODkwOQ@@._V1_SX300.jpg"
        },
        {
            "title": "Superman/Batman: Apocalypse",
            "year": "2010",
            "imdbID": "tt1673430",
            "type": "movie",
            "poster": "https://m.media-amazon.com/images/M/MV5BMjk3ODhmNjgtZjllOC00ZWZjLTkwYzQtNzc1Y2ZhMjY2ODE0XkEyXkFqcGdeQXVyNTAyODkwOQ@@._V1_SX300.jpg"
        },
        {
            "title": "Batman Beyond",
            "year": "1999–2001",
            "imdbID": "tt0147746",
            "type": "series",
            "poster": "https://m.media-amazon.com/images/M/MV5BYTBiZjFlZDQtZjc1MS00YzllLWE5ZTQtMmM5OTkyNjZjMWI3XkEyXkFqcGdeQXVyMTA1OTEwNjE@._V1_SX300.jpg"
        }
    ],
    "totalResults": "368",
    "Response": "True"
}
